%YAML 1.1
%TAG !u! tag:unity3d.com,2011:
--- !u!74 &7400000
AnimationClip:
  m_ObjectHideFlags: 0
  m_CorrespondingSourceObject: {fileID: 0}
  m_PrefabInstance: {fileID: 0}
  m_PrefabAsset: {fileID: 0}
  m_Name: RainCloud
  serializedVersion: 6
  m_Legacy: 0
  m_Compressed: 0
  m_UseHighQualityCurve: 1
  m_RotationCurves: []
  m_CompressedRotationCurves: []
  m_EulerCurves:
  - curve:
      serializedVersion: 2
      m_Curve:
      - serializedVersion: 3
        time: 0
        value: {x: 0, y: 0, z: 0.3}
        inSlope: {x: 0, y: 0, z: 0}
        outSlope: {x: 0, y: 0, z: 0}
        tangentMode: 0
        weightedMode: 0
        inWeight: {x: 0.33333334, y: 0.33333334, z: 0.33333334}
        outWeight: {x: 0.33333334, y: 0.33333334, z: 0.33333334}
      - serializedVersion: 3
        time: 1.1166667
        value: {x: 0, y: 0, z: -3.49}
        inSlope: {x: 0, y: 0, z: 0}
        outSlope: {x: 0, y: 0, z: 0}
        tangentMode: 0
        weightedMode: 0
        inWeight: {x: 0.33333334, y: 0.33333334, z: 0.33333334}
        outWeight: {x: 0.33333334, y: 0.33333334, z: 0.33333334}
      - serializedVersion: 3
        time: 2.1833334
        value: {x: 0, y: 0, z: 3.48}
        inSlope: {x: 0, y: 0, z: 0}
        outSlope: {x: 0, y: 0, z: 0}
        tangentMode: 0
        weightedMode: 0
        inWeight: {x: 0.33333334, y: 0.33333334, z: 0.33333334}
        outWeight: {x: 0.33333334, y: 0.33333334, z: 0.33333334}
      - serializedVersion: 3
        time: 3.15
        value: {x: 0, y: 0, z: 0.3}
        inSlope: {x: 0, y: 0, z: 0}
        outSlope: {x: 0, y: 0, z: 0}
        tangentMode: 0
        weightedMode: 0
        inWeight: {x: 0.33333334, y: 0.33333334, z: 0.33333334}
        outWeight: {x: 0.33333334, y: 0.33333334, z: 0.33333334}
      m_PreInfinity: 2
      m_PostInfinity: 2
      m_RotationOrder: 4
    path: Image
  m_PositionCurves:
  - curve:
      serializedVersion: 2
      m_Curve:
      - serializedVersion: 3
        time: 0
        value: {x: 0.189, y: -0.007, z: 0}
        inSlope: {x: 0, y: 0, z: 0}
        outSlope: {x: 0, y: 0, z: 0}
        tangentMode: 0
        weightedMode: 0
        inWeight: {x: 0.33333334, y: 0.33333334, z: 0.33333334}
        outWeight: {x: 0.33333334, y: 0.33333334, z: 0.33333334}
      - serializedVersion: 3
        time: 1.1166667
        value: {x: 0.091, y: -0.007, z: 0}
        inSlope: {x: 0, y: 0, z: 0}
        outSlope: {x: 0, y: 0, z: 0}
        tangentMode: 0
        weightedMode: 0
        inWeight: {x: 0.33333334, y: 0.33333334, z: 0.33333334}
        outWeight: {x: 0.33333334, y: 0.33333334, z: 0.33333334}
      - serializedVersion: 3
        time: 2.1833334
        value: {x: 0.287, y: -0.007, z: 0}
        inSlope: {x: 0, y: 0, z: 0}
        outSlope: {x: 0, y: 0, z: 0}
        tangentMode: 0
        weightedMode: 0
        inWeight: {x: 0.33333334, y: 0.33333334, z: 0.33333334}
        outWeight: {x: 0.33333334, y: 0.33333334, z: 0.33333334}
      - serializedVersion: 3
        time: 3.15
        value: {x: 0.189, y: -0.007, z: 0}
        inSlope: {x: 0, y: 0, z: 0}
        outSlope: {x: 0, y: 0, z: 0}
        tangentMode: 0
        weightedMode: 0
        inWeight: {x: 0.33333334, y: 0.33333334, z: 0.33333334}
        outWeight: {x: 0.33333334, y: 0.33333334, z: 0.33333334}
      m_PreInfinity: 2
      m_PostInfinity: 2
      m_RotationOrder: 4
    path: Image
  m_ScaleCurves:
  - curve:
      serializedVersion: 2
      m_Curve:
      - serializedVersion: 3
        time: 0
        value: {x: 0.2, y: 0.2, z: 0.2}
        inSlope: {x: 0, y: 0, z: 0}
        outSlope: {x: 0, y: 0, z: 0}
        tangentMode: 0
        weightedMode: 0
        inWeight: {x: 0.33333334, y: 0.33333334, z: 0.33333334}
        outWeight: {x: 0.33333334, y: 0.33333334, z: 0.33333334}
      - serializedVersion: 3
        time: 3.15
        value: {x: 0.2, y: 0.2, z: 0.2}
        inSlope: {x: 0, y: 0, z: 0}
        outSlope: {x: 0, y: 0, z: 0}
        tangentMode: 0
        weightedMode: 0
        inWeight: {x: 0.33333334, y: 0.33333334, z: 0.33333334}
        outWeight: {x: 0.33333334, y: 0.33333334, z: 0.33333334}
      m_PreInfinity: 2
      m_PostInfinity: 2
      m_RotationOrder: 4
    path: Image
  m_FloatCurves: []
  m_PPtrCurves:
  - curve:
    - time: 0
      value: {fileID: 21300000, guid: 67f78834a9045489ba1057e7b62e4606, type: 3}
    - time: 0.1
      value: {fileID: 21300000, guid: 898836949bb89404ebc64e42d6fb90e7, type: 3}
    - time: 0.2
      value: {fileID: 21300000, guid: 67f78834a9045489ba1057e7b62e4606, type: 3}
    - time: 0.3
      value: {fileID: 21300000, guid: 898836949bb89404ebc64e42d6fb90e7, type: 3}
    - time: 0.4
      value: {fileID: 21300000, guid: 67f78834a9045489ba1057e7b62e4606, type: 3}
    - time: 0.5
      value: {fileID: 21300000, guid: 898836949bb89404ebc64e42d6fb90e7, type: 3}
    - time: 0.6
      value: {fileID: 21300000, guid: 67f78834a9045489ba1057e7b62e4606, type: 3}
    - time: 0.7
      value: {fileID: 21300000, guid: 898836949bb89404ebc64e42d6fb90e7, type: 3}
    - time: 0.8
      value: {fileID: 21300000, guid: 67f78834a9045489ba1057e7b62e4606, type: 3}
    - time: 0.9
      value: {fileID: 21300000, guid: 898836949bb89404ebc64e42d6fb90e7, type: 3}
    - time: 1
      value: {fileID: 21300000, guid: 67f78834a9045489ba1057e7b62e4606, type: 3}
    - time: 1.1
      value: {fileID: 21300000, guid: 898836949bb89404ebc64e42d6fb90e7, type: 3}
    - time: 1.2
      value: {fileID: 21300000, guid: 67f78834a9045489ba1057e7b62e4606, type: 3}
    - time: 1.3
      value: {fileID: 21300000, guid: 898836949bb89404ebc64e42d6fb90e7, type: 3}
    - time: 1.4
      value: {fileID: 21300000, guid: 67f78834a9045489ba1057e7b62e4606, type: 3}
    - time: 1.5
      value: {fileID: 21300000, guid: 898836949bb89404ebc64e42d6fb90e7, type: 3}
    - time: 1.5833334
      value: {fileID: 21300000, guid: 67f78834a9045489ba1057e7b62e4606, type: 3}
    - time: 1.6833333
      value: {fileID: 21300000, guid: 898836949bb89404ebc64e42d6fb90e7, type: 3}
    - time: 1.7833333
      value: {fileID: 21300000, guid: 67f78834a9045489ba1057e7b62e4606, type: 3}
    - time: 1.8833333
      value: {fileID: 21300000, guid: 898836949bb89404ebc64e42d6fb90e7, type: 3}
    - time: 1.9833333
      value: {fileID: 21300000, guid: 67f78834a9045489ba1057e7b62e4606, type: 3}
    - time: 2.0833333
      value: {fileID: 21300000, guid: 898836949bb89404ebc64e42d6fb90e7, type: 3}
    - time: 2.1833334
      value: {fileID: 21300000, guid: 67f78834a9045489ba1057e7b62e4606, type: 3}
    - time: 2.2833333
      value: {fileID: 21300000, guid: 898836949bb89404ebc64e42d6fb90e7, type: 3}
    - time: 2.3666666
      value: {fileID: 21300000, guid: 67f78834a9045489ba1057e7b62e4606, type: 3}
    - time: 2.4666667
      value: {fileID: 21300000, guid: 898836949bb89404ebc64e42d6fb90e7, type: 3}
    - time: 2.5666666
      value: {fileID: 21300000, guid: 67f78834a9045489ba1057e7b62e4606, type: 3}
    - time: 2.6666667
      value: {fileID: 21300000, guid: 898836949bb89404ebc64e42d6fb90e7, type: 3}
    - time: 2.7666667
      value: {fileID: 21300000, guid: 67f78834a9045489ba1057e7b62e4606, type: 3}
    - time: 2.8666666
      value: {fileID: 21300000, guid: 898836949bb89404ebc64e42d6fb90e7, type: 3}
    - time: 2.9666667
      value: {fileID: 21300000, guid: 67f78834a9045489ba1057e7b62e4606, type: 3}
    - time: 3.0666666
      value: {fileID: 21300000, guid: 898836949bb89404ebc64e42d6fb90e7, type: 3}
    - time: 3.15
      value: {fileID: 21300000, guid: 67f78834a9045489ba1057e7b62e4606, type: 3}
    attribute: m_Sprite
    path: Image
    classID: 212
    script: {fileID: 0}
  m_SampleRate: 60
  m_WrapMode: 0
  m_Bounds:
    m_Center: {x: 0, y: 0, z: 0}
    m_Extent: {x: 0, y: 0, z: 0}
  m_ClipBindingConstant:
    genericBindings:
    - serializedVersion: 2
      path: 83635035
      attribute: 1
      script: {fileID: 0}
      typeID: 4
      customType: 0
      isPPtrCurve: 0
    - serializedVersion: 2
      path: 83635035
      attribute: 4
      script: {fileID: 0}
      typeID: 4
      customType: 4
      isPPtrCurve: 0
    - serializedVersion: 2
      path: 83635035
      attribute: 0
      script: {fileID: 0}
      typeID: 212
      customType: 23
      isPPtrCurve: 1
    - serializedVersion: 2
      path: 83635035
      attribute: 3
      script: {fileID: 0}
      typeID: 4
      customType: 0
      isPPtrCurve: 0
    pptrCurveMapping:
    - {fileID: 21300000, guid: 67f78834a9045489ba1057e7b62e4606, type: 3}
    - {fileID: 21300000, guid: 898836949bb89404ebc64e42d6fb90e7, type: 3}
    - {fileID: 21300000, guid: 67f78834a9045489ba1057e7b62e4606, type: 3}
    - {fileID: 21300000, guid: 898836949bb89404ebc64e42d6fb90e7, type: 3}
    - {fileID: 21300000, guid: 67f78834a9045489ba1057e7b62e4606, type: 3}
    - {fileID: 21300000, guid: 898836949bb89404ebc64e42d6fb90e7, type: 3}
    - {fileID: 21300000, guid: 67f78834a9045489ba1057e7b62e4606, type: 3}
    - {fileID: 21300000, guid: 898836949bb89404ebc64e42d6fb90e7, type: 3}
    - {fileID: 21300000, guid: 67f78834a9045489ba1057e7b62e4606, type: 3}
    - {fileID: 21300000, guid: 898836949bb89404ebc64e42d6fb90e7, type: 3}
    - {fileID: 21300000, guid: 67f78834a9045489ba1057e7b62e4606, type: 3}
    - {fileID: 21300000, guid: 898836949bb89404ebc64e42d6fb90e7, type: 3}
    - {fileID: 21300000, guid: 67f78834a9045489ba1057e7b62e4606, type: 3}
    - {fileID: 21300000, guid: 898836949bb89404ebc64e42d6fb90e7, type: 3}
    - {fileID: 21300000, guid: 67f78834a9045489ba1057e7b62e4606, type: 3}
    - {fileID: 21300000, guid: 898836949bb89404ebc64e42d6fb90e7, type: 3}
    - {fileID: 21300000, guid: 67f78834a9045489ba1057e7b62e4606, type: 3}
    - {fileID: 21300000, guid: 898836949bb89404ebc64e42d6fb90e7, type: 3}
    - {fileID: 21300000, guid: 67f78834a9045489ba1057e7b62e4606, type: 3}
    - {fileID: 21300000, guid: 898836949bb89404ebc64e42d6fb90e7, type: 3}
    - {fileID: 21300000, guid: 67f78834a9045489ba1057e7b62e4606, type: 3}
    - {fileID: 21300000, guid: 898836949bb89404ebc64e42d6fb90e7, type: 3}
    - {fileID: 21300000, guid: 67f78834a9045489ba1057e7b62e4606, type: 3}
    - {fileID: 21300000, guid: 898836949bb89404ebc64e42d6fb90e7, type: 3}
    - {fileID: 21300000, guid: 67f78834a9045489ba1057e7b62e4606, type: 3}
    - {fileID: 21300000, guid: 898836949bb89404ebc64e42d6fb90e7, type: 3}
    - {fileID: 21300000, guid: 67f78834a9045489ba1057e7b62e4606, type: 3}
    - {fileID: 21300000, guid: 898836949bb89404ebc64e42d6fb90e7, type: 3}
    - {fileID: 21300000, guid: 67f78834a9045489ba1057e7b62e4606, type: 3}
    - {fileID: 21300000, guid: 898836949bb89404ebc64e42d6fb90e7, type: 3}
    - {fileID: 21300000, guid: 67f78834a9045489ba1057e7b62e4606, type: 3}
    - {fileID: 21300000, guid: 898836949bb89404ebc64e42d6fb90e7, type: 3}
    - {fileID: 21300000, guid: 67f78834a9045489ba1057e7b62e4606, type: 3}
  m_AnimationClipSettings:
    serializedVersion: 2
    m_AdditiveReferencePoseClip: {fileID: 0}
    m_AdditiveReferencePoseTime: 0
    m_StartTime: 0
    m_StopTime: 3.1666667
    m_OrientationOffsetY: 0
    m_Level: 0
    m_CycleOffset: 0
    m_HasAdditiveReferencePose: 0
    m_LoopTime: 1
    m_LoopBlend: 0
    m_LoopBlendOrientation: 0
    m_LoopBlendPositionY: 0
    m_LoopBlendPositionXZ: 0
    m_KeepOriginalOrientation: 0
    m_KeepOriginalPositionY: 1
    m_KeepOriginalPositionXZ: 0
    m_HeightFromFeet: 0
    m_Mirror: 0
  m_EditorCurves:
  - curve:
      serializedVersion: 2
      m_Curve:
      - serializedVersion: 3
        time: 0
        value: 0.2
        inSlope: 0
        outSlope: 0
        tangentMode: 136
        weightedMode: 0
        inWeight: 0.33333334
        outWeight: 0.33333334
      - serializedVersion: 3
        time: 3.15
        value: 0.2
        inSlope: 0
        outSlope: 0
        tangentMode: 136
        weightedMode: 0
        inWeight: 0.33333334
        outWeight: 0.33333334
      m_PreInfinity: 2
      m_PostInfinity: 2
      m_RotationOrder: 4
    attribute: m_LocalScale.x
    path: Image
    classID: 4
    script: {fileID: 0}
  - curve:
      serializedVersion: 2
      m_Curve:
      - serializedVersion: 3
        time: 0
        value: 0.2
        inSlope: 0
        outSlope: 0
        tangentMode: 136
        weightedMode: 0
        inWeight: 0.33333334
        outWeight: 0.33333334
      - serializedVersion: 3
        time: 3.15
        value: 0.2
        inSlope: 0
        outSlope: 0
        tangentMode: 136
        weightedMode: 0
        inWeight: 0.33333334
        outWeight: 0.33333334
      m_PreInfinity: 2
      m_PostInfinity: 2
      m_RotationOrder: 4
    attribute: m_LocalScale.y
    path: Image
    classID: 4
    script: {fileID: 0}
  - curve:
      serializedVersion: 2
      m_Curve:
      - serializedVersion: 3
        time: 0
        value: 0.2
        inSlope: 0
        outSlope: 0
        tangentMode: 136
        weightedMode: 0
        inWeight: 0.33333334
        outWeight: 0.33333334
      - serializedVersion: 3
        time: 3.15
        value: 0.2
        inSlope: 0
        outSlope: 0
        tangentMode: 136
        weightedMode: 0
        inWeight: 0.33333334
        outWeight: 0.33333334
      m_PreInfinity: 2
      m_PostInfinity: 2
      m_RotationOrder: 4
    attribute: m_LocalScale.z
    path: Image
    classID: 4
    script: {fileID: 0}
  - curve:
      serializedVersion: 2
      m_Curve:
      - serializedVersion: 3
        time: 0
        value: 0.189
        inSlope: 0
        outSlope: 0
        tangentMode: 136
        weightedMode: 0
        inWeight: 0.33333334
        outWeight: 0.33333334
      - serializedVersion: 3
        time: 1.1166667
        value: 0.091
        inSlope: 0
        outSlope: 0
        tangentMode: 136
        weightedMode: 0
        inWeight: 0.33333334
        outWeight: 0.33333334
      - serializedVersion: 3
        time: 2.1833334
        value: 0.287
        inSlope: 0
        outSlope: 0
        tangentMode: 136
        weightedMode: 0
        inWeight: 0.33333334
        outWeight: 0.33333334
      - serializedVersion: 3
        time: 3.15
        value: 0.189
        inSlope: 0
        outSlope: 0
        tangentMode: 136
        weightedMode: 0
        inWeight: 0.33333334
        outWeight: 0.33333334
      m_PreInfinity: 2
      m_PostInfinity: 2
      m_RotationOrder: 4
    attribute: m_LocalPosition.x
    path: Image
    classID: 4
    script: {fileID: 0}
  - curve:
      serializedVersion: 2
      m_Curve:
      - serializedVersion: 3
        time: 0
        value: -0.007
        inSlope: 0
        outSlope: 0
        tangentMode: 136
        weightedMode: 0
        inWeight: 0.33333334
        outWeight: 0.33333334
      - serializedVersion: 3
        time: 1.1166667
        value: -0.007
        inSlope: 0
        outSlope: 0
        tangentMode: 136
        weightedMode: 0
        inWeight: 0.33333334
        outWeight: 0.33333334
      - serializedVersion: 3
        time: 2.1833334
        value: -0.007
        inSlope: 0
        outSlope: 0
        tangentMode: 136
        weightedMode: 0
        inWeight: 0.33333334
        outWeight: 0.33333334
      - serializedVersion: 3
        time: 3.15
        value: -0.007
        inSlope: 0
        outSlope: 0
        tangentMode: 136
        weightedMode: 0
        inWeight: 0.33333334
        outWeight: 0.33333334
      m_PreInfinity: 2
      m_PostInfinity: 2
      m_RotationOrder: 4
    attribute: m_LocalPosition.y
    path: Image
    classID: 4
    script: {fileID: 0}
  - curve:
      serializedVersion: 2
      m_Curve:
      - serializedVersion: 3
        time: 0
        value: 0
        inSlope: 0
        outSlope: 0
        tangentMode: 136
        weightedMode: 0
        inWeight: 0.33333334
        outWeight: 0.33333334
      - serializedVersion: 3
        time: 1.1166667
        value: 0
        inSlope: 0
        outSlope: 0
        tangentMode: 136
        weightedMode: 0
        inWeight: 0.33333334
        outWeight: 0.33333334
      - serializedVersion: 3
        time: 2.1833334
        value: 0
        inSlope: 0
        outSlope: 0
        tangentMode: 136
        weightedMode: 0
        inWeight: 0.33333334
        outWeight: 0.33333334
      - serializedVersion: 3
        time: 3.15
        value: 0
        inSlope: 0
        outSlope: 0
        tangentMode: 136
        weightedMode: 0
        inWeight: 0.33333334
        outWeight: 0.33333334
      m_PreInfinity: 2
      m_PostInfinity: 2
      m_RotationOrder: 4
    attribute: m_LocalPosition.z
    path: Image
    classID: 4
    script: {fileID: 0}
  - curve:
      serializedVersion: 2
      m_Curve:
      - serializedVersion: 3
        time: 0
        value: 0
        inSlope: 0
        outSlope: 0
        tangentMode: 136
        weightedMode: 0
        inWeight: 0.33333334
        outWeight: 0.33333334
      - serializedVersion: 3
        time: 1.1166667
        value: 0
        inSlope: 0
        outSlope: 0
        tangentMode: 136
        weightedMode: 0
        inWeight: 0.33333334
        outWeight: 0.33333334
      - serializedVersion: 3
        time: 2.1833334
        value: 0
        inSlope: 0
        outSlope: 0
        tangentMode: 136
        weightedMode: 0
        inWeight: 0.33333334
        outWeight: 0.33333334
      - serializedVersion: 3
        time: 3.15
        value: 0
        inSlope: 0
        outSlope: 0
        tangentMode: 136
        weightedMode: 0
        inWeight: 0.33333334
        outWeight: 0.33333334
      m_PreInfinity: 2
      m_PostInfinity: 2
      m_RotationOrder: 4
    attribute: localEulerAnglesRaw.x
    path: Image
    classID: 4
    script: {fileID: 0}
  - curve:
      serializedVersion: 2
      m_Curve:
      - serializedVersion: 3
        time: 0
        value: 0
        inSlope: 0
        outSlope: 0
        tangentMode: 136
        weightedMode: 0
        inWeight: 0.33333334
        outWeight: 0.33333334
      - serializedVersion: 3
        time: 1.1166667
        value: 0
        inSlope: 0
        outSlope: 0
        tangentMode: 136
        weightedMode: 0
        inWeight: 0.33333334
        outWeight: 0.33333334
      - serializedVersion: 3
        time: 2.1833334
        value: 0
        inSlope: 0
        outSlope: 0
        tangentMode: 136
        weightedMode: 0
        inWeight: 0.33333334
        outWeight: 0.33333334
      - serializedVersion: 3
        time: 3.15
        value: 0
        inSlope: 0
        outSlope: 0
        tangentMode: 136
        weightedMode: 0
        inWeight: 0.33333334
        outWeight: 0.33333334
      m_PreInfinity: 2
      m_PostInfinity: 2
      m_RotationOrder: 4
    attribute: localEulerAnglesRaw.y
    path: Image
    classID: 4
    script: {fileID: 0}
  - curve:
      serializedVersion: 2
      m_Curve:
      - serializedVersion: 3
        time: 0
        value: 0.3
        inSlope: 0
        outSlope: 0
        tangentMode: 136
        weightedMode: 0
        inWeight: 0.33333334
        outWeight: 0.33333334
      - serializedVersion: 3
        time: 1.1166667
        value: -3.49
        inSlope: 0
        outSlope: 0
        tangentMode: 136
        weightedMode: 0
        inWeight: 0.33333334
        outWeight: 0.33333334
      - serializedVersion: 3
        time: 2.1833334
        value: 3.48
        inSlope: 0
        outSlope: 0
        tangentMode: 136
        weightedMode: 0
        inWeight: 0.33333334
        outWeight: 0.33333334
      - serializedVersion: 3
        time: 3.15
        value: 0.3
        inSlope: 0
        outSlope: 0
        tangentMode: 136
        weightedMode: 0
        inWeight: 0.33333334
        outWeight: 0.33333334
      m_PreInfinity: 2
      m_PostInfinity: 2
      m_RotationOrder: 4
    attribute: localEulerAnglesRaw.z
    path: Image
    classID: 4
    script: {fileID: 0}
  m_EulerEditorCurves:
  - curve:
      serializedVersion: 2
      m_Curve: []
      m_PreInfinity: 2
      m_PostInfinity: 2
      m_RotationOrder: 4
    attribute: m_LocalEulerAngles.x
    path: Image
    classID: 4
    script: {fileID: 0}
  - curve:
      serializedVersion: 2
      m_Curve: []
      m_PreInfinity: 2
      m_PostInfinity: 2
      m_RotationOrder: 4
    attribute: m_LocalEulerAngles.y
    path: Image
    classID: 4
    script: {fileID: 0}
  - curve:
      serializedVersion: 2
      m_Curve: []
      m_PreInfinity: 2
      m_PostInfinity: 2
      m_RotationOrder: 4
    attribute: m_LocalEulerAngles.z
    path: Image
    classID: 4
    script: {fileID: 0}
  m_HasGenericRootTransform: 0
  m_HasMotionFloatCurves: 0
  m_Events: []
