%YAML 1.1
%TAG !u! tag:unity3d.com,2011:
--- !u!1 &5270427151250900915
GameObject:
  m_ObjectHideFlags: 0
  m_CorrespondingSourceObject: {fileID: 0}
  m_PrefabInstance: {fileID: 0}
  m_PrefabAsset: {fileID: 0}
  serializedVersion: 6
  m_Component:
  - component: {fileID: 3667801381702255262}
  - component: {fileID: 2438169563494998431}
  m_Layer: 0
  m_Name: WorldAnimalFactory
  m_TagString: Untagged
  m_Icon: {fileID: 0}
  m_NavMeshLayer: 0
  m_StaticEditorFlags: 0
  m_IsActive: 1
--- !u!4 &3667801381702255262
Transform:
  m_ObjectHideFlags: 0
  m_CorrespondingSourceObject: {fileID: 0}
  m_PrefabInstance: {fileID: 0}
  m_PrefabAsset: {fileID: 0}
  m_GameObject: {fileID: 5270427151250900915}
  m_LocalRotation: {x: 0, y: 0, z: 0, w: 1}
  m_LocalPosition: {x: 0, y: 0, z: 0}
  m_LocalScale: {x: 1, y: 1, z: 1}
  m_Children: []
  m_Father: {fileID: 0}
  m_RootOrder: 0
  m_LocalEulerAnglesHint: {x: 0, y: 0, z: 0}
--- !u!114 &2438169563494998431
MonoBehaviour:
  m_ObjectHideFlags: 0
  m_CorrespondingSourceObject: {fileID: 0}
  m_PrefabInstance: {fileID: 0}
  m_PrefabAsset: {fileID: 0}
  m_GameObject: {fileID: 5270427151250900915}
  m_Enabled: 1
  m_EditorHideFlags: 0
  m_Script: {fileID: 11500000, guid: c9ce1786c9f860743b95aed387ca7647, type: 3}
  m_Name: 
  m_EditorClassIdentifier: 
  objects:
  - {fileID: 1180551417396939755, guid: 2cdb1831f0e7dab46b6c1a868004191f, type: 3}
  - {fileID: 1180551417396939755, guid: e2a3ca84f85f35240bb8cb85563bf914, type: 3}
  - {fileID: 1180551417396939755, guid: 3504e8d215d194a03a0f3767b2318bc6, type: 3}
  - {fileID: 1180551417396939755, guid: e8c74154ed77142a8bf1c1d72f679146, type: 3}
