%YAML 1.1
%TAG !u! tag:unity3d.com,2011:
--- !u!1 &4577786505255165602
GameObject:
  m_ObjectHideFlags: 0
  m_CorrespondingSourceObject: {fileID: 0}
  m_PrefabInstance: {fileID: 0}
  m_PrefabAsset: {fileID: 0}
  serializedVersion: 6
  m_Component:
  - component: {fileID: 8593564549185286441}
  - component: {fileID: 6457516783161888130}
  - component: {fileID: 4420304619954575286}
  - component: {fileID: 3150560827313575486}
  m_Layer: 0
  m_Name: GameManager
  m_TagString: Untagged
  m_Icon: {fileID: 0}
  m_NavMeshLayer: 0
  m_StaticEditorFlags: 0
  m_IsActive: 1
--- !u!4 &8593564549185286441
Transform:
  m_ObjectHideFlags: 0
  m_CorrespondingSourceObject: {fileID: 0}
  m_PrefabInstance: {fileID: 0}
  m_PrefabAsset: {fileID: 0}
  m_GameObject: {fileID: 4577786505255165602}
  m_LocalRotation: {x: -0, y: -0, z: -0, w: 1}
  m_LocalPosition: {x: 0, y: 0, z: 0}
  m_LocalScale: {x: 1, y: 1, z: 1}
  m_Children: []
  m_Father: {fileID: 0}
  m_RootOrder: 0
  m_LocalEulerAnglesHint: {x: 0, y: 0, z: 0}
--- !u!114 &6457516783161888130
MonoBehaviour:
  m_ObjectHideFlags: 0
  m_CorrespondingSourceObject: {fileID: 0}
  m_PrefabInstance: {fileID: 0}
  m_PrefabAsset: {fileID: 0}
  m_GameObject: {fileID: 4577786505255165602}
  m_Enabled: 1
  m_EditorHideFlags: 0
  m_Script: {fileID: 11500000, guid: 6163dbaf9e9a91d499ac03c708b60707, type: 3}
  m_Name: 
  m_EditorClassIdentifier: 
--- !u!114 &4420304619954575286
MonoBehaviour:
  m_ObjectHideFlags: 0
  m_CorrespondingSourceObject: {fileID: 0}
  m_PrefabInstance: {fileID: 0}
  m_PrefabAsset: {fileID: 0}
  m_GameObject: {fileID: 4577786505255165602}
  m_Enabled: 1
  m_EditorHideFlags: 0
  m_Script: {fileID: 11500000, guid: de33e1f0b0b340b4c878486d40e6246a, type: 3}
  m_Name: 
  m_EditorClassIdentifier: 
  worldAnimalList:
  - ID: turtle
    Animal: 0
  - ID: kitten
    Animal: 1
  - ID: octopus
    Animal: 3
  - ID: cow
    Animal: 2
--- !u!114 &3150560827313575486
MonoBehaviour:
  m_ObjectHideFlags: 0
  m_CorrespondingSourceObject: {fileID: 0}
  m_PrefabInstance: {fileID: 0}
  m_PrefabAsset: {fileID: 0}
  m_GameObject: {fileID: 4577786505255165602}
  m_Enabled: 1
  m_EditorHideFlags: 0
  m_Script: {fileID: 11500000, guid: d293094ad3cf0f743af9e3544fbb1115, type: 3}
  m_Name: 
  m_EditorClassIdentifier: 
  worldAnimals: {fileID: 4900000, guid: c1fe0af5a715b114dbd991c1a3ec10e7, type: 3}
  decorations: {fileID: 4900000, guid: 775dd59348600de4f888bd90792c5826, type: 3}
  critters: {fileID: 4900000, guid: 579e52b495f6d434299c8fe62d59f311, type: 3}
